UART/dump.vcd
$date
	Fri Oct 27 19:55:59 2023
$end
$version
	Bluespec VCD dumper 2.1
$end
$timescale
	1 us
$end
$scope module main $end
$scope module top $end
$var reg 1 ! CLK $end
$var reg 1 ! CLK $end
$var reg 1 " RST_N $end
$var reg 6 # x__h387 $end
$var reg 6 % cnt $end
$scope module uut $end
$var reg 1 ! CLK $end
$var reg 1 & NOT_tx___d16 $end
$var reg 1 ' RST_N $end
$var reg 1 ( tx___d1 $end
$var reg 4 . bit_cnt $end
$var reg 1 / parity $end
$var reg 8 0 sbuf $end
$var reg 1 1 tx $end
$var reg 1 2 tx_line $end
$upscope $end
$upscope $end
$upscope $end
$enddefinitions $end
1!
0"
b101010 #
b0 %
1&
0'
0(
b0 .
0/
b11111111 0
01
12
b0 #
#5
0!
1"
1'
#10
b1 #
1!
b1 %
#15
0!
#20
b10 #
1!
b10 %
#25
0!
#30
b11 #
1!
b11 %
#35
0!
#40
b100 #
1!
b100 %
b11001010 0
#45
0!
#50
b101 #
1!
b101 %
#55
0!
#60
b110 #
1!
b110 %
#65
0!
#70
b111 #
1!
b111 %
#75
0!
#80
b1000 #
1!
b1000 %
#85
0!
#90
b1001 #
1!
b1001 %
#95
0!
#100
b1010 #
1!
b1010 %
#105
0!
#110
b1011 #
0&
1(
1!
b1011 %
11
02
#115
0!
#120
b1100 #
1!
b1100 %
b1 .
b1100101 0
#125
0!
#130
b1101 #
1!
b1101 %
b10 .
b110010 0
12
#135
0!
#140
b1110 #
1!
b1110 %
b11 .
b11001 0
02
#145
0!
#150
b1111 #
1!
b1111 %
b100 .
b1100 0
12
#155
0!
#160
b10000 #
1!
b10000 %
b101 .
b110 0
02
#165
0!
#170
b10001 #
1!
b10001 %
b110 .
b11 0
#175
0!
#180
b10010 #
1!
b10010 %
b111 .
b1 0
12
#185
0!
#190
b10011 #
1!
b10011 %
b1000 .
b0 0
#195
0!
#200
b10100 #
1!
b10100 %
b1001 .
02
#205
0!
#210
b10101 #
1&
0(
1!
b10101 %
b0 .
01
12
#215
0!
#220
b10110 #
1!
b10110 %
#225
0!
#230
b10111 #
1!
b10111 %
#235
0!
#240
b11000 #
1!
b11000 %
#245
0!
#250
b11001 #
1!
b11001 %
#255
0!
#260
b11010 #
1!
b11010 %
1/
b10101011 0
#265
0!
#270
b11011 #
1!
b11011 %
#275
0!
#280
b11100 #
1!
b11100 %
#285
0!
#290
b11101 #
1!
b11101 %
#295
0!
#300
b11110 #
1!
b11110 %
#305
0!
#310
b11111 #
0&
1(
1!
b11111 %
11
02
#315
0!
#320
b100000 #
1!
b100000 %
b1 .
b1010101 0
12
#325
0!
#330
b100001 #
1!
b100001 %
b10 .
b101010 0
#335
0!
#340
b100010 #
1!
b100010 %
b11 .
b10101 0
02
#345
0!
#350
b100011 #
1!
b100011 %
b100 .
b1010 0
12
#355
0!
#360
b100100 #
1!
b100100 %
b101 .
b101 0
02
#365
0!
#370
b100101 #
1!
b100101 %
b110 .
b10 0
12
#375
0!
#380
b100110 #
1!
b100110 %
b111 .
b1 0
02
#385
0!
#390
b100111 #
1!
b100111 %
b1000 .
b0 0
12
#395
0!
#400
b101000 #
1!
b101000 %
b1001 .
#405
0!
#410
b101001 #
1&
0(
1!
b101001 %
b0 .
01
#415
0!
#420
b101010 #
1!
b101010 %
#425
0!
#430
b101011 #
1!
b101011 %
#435
0!
#440
b101100 #
1!
b101100 %
#445
0!
#450
b101101 #
1!
b101101 %
#455
0!
#460
b101110 #
1!
b101110 %
0/
b1001011 0
#465
0!
#470
b101111 #
1!
b101111 %
#475
0!
#480
b110000 #
1!
b110000 %
#485
0!
#490
b110001 #
1!
b110001 %
#495
0!
#500
b110010 #
1!
b110010 %
#505
0!
#510
b110011 #
0&
1(
1!
b110011 %
11
02
#515
0!
#520
b110100 #
1!
b110100 %
b1 .
b100101 0
12
#525
0!
#530
b110101 #
1!
b110101 %
b10 .
b10010 0
#535
0!
#540
b110110 #
1!
b110110 %
b11 .
b1001 0
02
#545
0!
#550
b110111 #
1!
b110111 %
b100 .
b100 0
12
#555
0!
#560
b111000 #
1!
b111000 %
b101 .
b10 0
02
#565
0!
#570
b111001 #
1!
b111001 %
b110 .
b1 0
#575
0!
#580
b111010 #
1!
b111010 %
b111 .
b0 0
12
#585
0!
#590
b111011 #
1!
b111011 %
b1000 .
02
#595
0!
#600
b111100 #
1!
b111100 %
b1001 .
#605
0!
#610
b111101 #
1&
0(
1!
b111101 %
b0 .
01
12
#615
0!
#620
b111110 #
1!
b111110 %
#625
0!
#630
b111111 #
1!
b111111 %
