UART_32bit/dump.vcd
$date
	Sat Oct 28 15:43:47 2023
$end
$version
	Bluespec VCD dumper 2.1
$end
$timescale
	1 us
$end
$scope module main $end
$scope module top $end
$var reg 1 ! CLK $end
$var reg 1 ! CLK $end
$var reg 1 " RST_N $end
$var reg 8 # x__h387 $end
$var reg 8 % cnt $end
$scope module uut $end
$var reg 1 ! CLK $end
$var reg 1 & NOT_tx_4___d59 $end
$var reg 1 ' RST_N $end
$var reg 1 ( WILL_FIRE_par_in $end
$var reg 1 ) bit_cnt_5_EQ_10___d38 $end
$var reg 1 * bit_cnt_5_EQ_9___d36 $end
$var reg 1 + s_cnt_EQ_3___d5 $end
$var reg 1 , tx___d34 $end
$var reg 4 - x__h1005 $end
$var reg 2 . x__h1010 $end
$var reg 1 / EN_par_in $end
$var reg 4 9 bit_cnt $end
$var reg 32 : num_reg $end
$var reg 1 ; parity $end
$var reg 2 < s_cnt $end
$var reg 8 = sbuf $end
$var reg 8 > sbuf_din $end
$var reg 1 ? tx $end
$var reg 1 @ tx_frag $end
$var reg 1 A tx_line $end
$upscope $end
$upscope $end
$upscope $end
$enddefinitions $end
1!
0"
b10101010 #
b0 %
1&
0'
0(
0)
0*
0+
0,
b0 -
b0 .
0/
b0 9
b0 :
0;
b11 <
b11111111 =
bx >
0?
x@
1A
b0 #
#5
0!
1"
1'
#10
b1 #
1!
b1 %
#15
0!
#20
b10 #
1!
b10 %
#25
0!
#30
b11 #
1(
1/
1!
b11 %
#35
0!
#40
b100 #
0(
0/
1!
b100 %
b10101011110011011011110011011010 :
#45
0!
#50
b101 #
1!
b101 %
#55
0!
#60
b110 #
1!
b110 %
#65
0!
#70
b111 #
1!
b111 %
#75
0!
#80
b1000 #
1!
b1000 %
#85
0!
#90
b1001 #
1!
b1001 %
#95
0!
#100
b1010 #
b11 .
b11011010 >
1@
1!
b1010 %
#105
0!
#110
b1011 #
0&
1+
1,
bx >
x@
1!
b1011 %
1;
b11011010 =
1?
0A
#115
0!
#120
b1100 #
b1 -
1!
b1100 %
b1 9
b1101101 =
#125
0!
#130
b1101 #
b10 -
1!
b1101 %
b10 9
b110110 =
1A
#135
0!
#140
b1110 #
b11 -
1!
b1110 %
b11 9
b11011 =
0A
#145
0!
#150
b1111 #
b100 -
1!
b1111 %
b100 9
b1101 =
1A
#155
0!
#160
b10000 #
b101 -
1!
b10000 %
b101 9
b110 =
#165
0!
#170
b10001 #
b110 -
1!
b10001 %
b110 9
b11 =
0A
#175
0!
#180
b10010 #
b111 -
1!
b10010 %
b111 9
b1 =
1A
#185
0!
#190
b10011 #
b1000 -
1!
b10011 %
b1000 9
b0 =
#195
0!
#200
b10100 #
1*
b1001 -
1!
b10100 %
b1001 9
#205
0!
#210
b10101 #
1)
0*
0+
b1010 -
b0 .
b10111100 >
1@
1!
b10101 %
b1010 9
b0 <
#215
0!
#220
b10110 #
0)
b0 -
bx >
x@
1!
b10110 %
b0 9
b10111100 =
0A
#225
0!
#230
b10111 #
b1 -
1!
b10111 %
b1 9
b1011110 =
#235
0!
#240
b11000 #
b10 -
1!
b11000 %
b10 9
b101111 =
#245
0!
#250
b11001 #
b11 -
1!
b11001 %
b11 9
b10111 =
1A
#255
0!
#260
b11010 #
b100 -
1!
b11010 %
b100 9
b1011 =
#265
0!
#270
b11011 #
b101 -
1!
b11011 %
b101 9
b101 =
#275
0!
#280
b11100 #
b110 -
1!
b11100 %
b110 9
b10 =
#285
0!
#290
b11101 #
b111 -
1!
b11101 %
b111 9
b1 =
0A
#295
0!
#300
b11110 #
b1000 -
1!
b11110 %
b1000 9
b0 =
1A
#305
0!
#310
b11111 #
1*
b1001 -
1!
b11111 %
b1001 9
#315
0!
#320
b100000 #
1)
0*
b1010 -
b1 .
b11001101 >
1@
1!
b100000 %
b1010 9
b1 <
#325
0!
#330
b100001 #
0)
b0 -
bx >
x@
1!
b100001 %
b0 9
b11001101 =
0A
#335
0!
#340
b100010 #
b1 -
1!
b100010 %
b1 9
b1100110 =
1A
#345
0!
#350
b100011 #
b10 -
1!
b100011 %
b10 9
b110011 =
0A
#355
0!
#360
b100100 #
b11 -
1!
b100100 %
b11 9
b11001 =
1A
#365
0!
#370
b100101 #
b100 -
1!
b100101 %
b100 9
b1100 =
#375
0!
#380
b100110 #
b101 -
1!
b100110 %
b101 9
b110 =
0A
#385
0!
#390
b100111 #
b110 -
1!
b100111 %
b110 9
b11 =
#395
0!
#400
b101000 #
b111 -
1!
b101000 %
b111 9
b1 =
1A
#405
0!
#410
b101001 #
b1000 -
1!
b101001 %
b1000 9
b0 =
#415
0!
#420
b101010 #
1*
b1001 -
1!
b101010 %
b1001 9
#425
0!
#430
b101011 #
1)
0*
b1010 -
b10 .
b10101011 >
1@
1!
b101011 %
b1010 9
b10 <
#435
0!
#440
b101100 #
0)
b0 -
bx >
x@
1!
b101100 %
b0 9
b10101011 =
0A
#445
0!
#450
b101101 #
b1 -
1!
b101101 %
b1 9
b1010101 =
1A
#455
0!
#460
b101110 #
b10 -
1!
b101110 %
b10 9
b101010 =
#465
0!
#470
b101111 #
b11 -
1!
b101111 %
b11 9
b10101 =
0A
#475
0!
#480
b110000 #
b100 -
1!
b110000 %
b100 9
b1010 =
1A
#485
0!
#490
b110001 #
b101 -
1!
b110001 %
b101 9
b101 =
0A
#495
0!
#500
b110010 #
b110 -
1!
b110010 %
b110 9
b10 =
1A
#505
0!
#510
b110011 #
b111 -
1!
b110011 %
b111 9
b1 =
0A
#515
0!
#520
b110100 #
b1000 -
1!
b110100 %
b1000 9
b0 =
1A
#525
0!
#530
b110101 #
1*
b1001 -
1!
b110101 %
b1001 9
#535
0!
#540
b110110 #
1)
0*
1+
b1010 -
b11 .
1!
b110110 %
b1010 9
b11 <
#545
0!
#550
b110111 #
1&
0,
1!
b110111 %
b0 9
0?
#555
0!
#560
b111000 #
1!
b111000 %
#565
0!
#570
b111001 #
1!
b111001 %
#575
0!
#580
b111010 #
1!
b111010 %
#585
0!
#590
b111011 #
1!
b111011 %
#595
0!
#600
b111100 #
b11011010 >
1@
1!
b111100 %
#605
0!
#610
b111101 #
0&
0)
1,
b0 -
bx >
x@
1!
b111101 %
b11011010 =
1?
0A
#615
0!
#620
b111110 #
b1 -
1!
b111110 %
b1 9
b1101101 =
#625
0!
#630
b111111 #
b10 -
1!
b111111 %
b10 9
b110110 =
1A
#635
0!
#640
b1000000 #
b11 -
1!
b1000000 %
b11 9
b11011 =
0A
#645
0!
#650
b1000001 #
b100 -
1!
b1000001 %
b100 9
b1101 =
1A
#655
0!
#660
b1000010 #
b101 -
1!
b1000010 %
b101 9
b110 =
#665
0!
#670
b1000011 #
b110 -
1!
b1000011 %
b110 9
b11 =
0A
#675
0!
#680
b1000100 #
b111 -
1!
b1000100 %
b111 9
b1 =
1A
#685
0!
#690
b1000101 #
b1000 -
1!
b1000101 %
b1000 9
b0 =
#695
0!
#700
b1000110 #
1*
b1001 -
1!
b1000110 %
b1001 9
#705
0!
#710
b1000111 #
1)
0*
0+
b1010 -
b0 .
b10111100 >
1@
1!
b1000111 %
b1010 9
b0 <
#715
0!
#720
b1001000 #
0)
b0 -
bx >
x@
1!
b1001000 %
b0 9
b10111100 =
0A
#725
0!
#730
b1001001 #
b1 -
1!
b1001001 %
b1 9
b1011110 =
#735
0!
#740
b1001010 #
b10 -
1!
b1001010 %
b10 9
b101111 =
#745
0!
#750
b1001011 #
b11 -
1!
b1001011 %
b11 9
b10111 =
1A
#755
0!
#760
b1001100 #
b100 -
1!
b1001100 %
b100 9
b1011 =
#765
0!
#770
b1001101 #
b101 -
1!
b1001101 %
b101 9
b101 =
#775
0!
#780
b1001110 #
b110 -
1!
b1001110 %
b110 9
b10 =
#785
0!
#790
b1001111 #
b111 -
1!
b1001111 %
b111 9
b1 =
0A
#795
0!
#800
b1010000 #
b1000 -
1!
b1010000 %
b1000 9
b0 =
1A
#805
0!
#810
b1010001 #
1*
b1001 -
1!
b1010001 %
b1001 9
#815
0!
#820
b1010010 #
1)
0*
b1010 -
b1 .
b11001101 >
1@
1!
b1010010 %
b1010 9
b1 <
#825
0!
#830
b1010011 #
0)
b0 -
bx >
x@
1!
b1010011 %
b0 9
b11001101 =
0A
#835
0!
#840
b1010100 #
b1 -
1!
b1010100 %
b1 9
b1100110 =
1A
#845
0!
#850
b1010101 #
b10 -
1!
b1010101 %
b10 9
b110011 =
0A
#855
0!
#860
b1010110 #
b11 -
1!
b1010110 %
b11 9
b11001 =
1A
#865
0!
#870
b1010111 #
b100 -
1!
b1010111 %
b100 9
b1100 =
#875
0!
#880
b1011000 #
b101 -
1!
b1011000 %
b101 9
b110 =
0A
#885
0!
#890
b1011001 #
b110 -
1!
b1011001 %
b110 9
b11 =
#895
0!
#900
b1011010 #
b111 -
1!
b1011010 %
b111 9
b1 =
1A
#905
0!
#910
b1011011 #
b1000 -
1!
b1011011 %
b1000 9
b0 =
#915
0!
#920
b1011100 #
1*
b1001 -
1!
b1011100 %
b1001 9
#925
0!
#930
b1011101 #
1)
0*
b1010 -
b10 .
b10101011 >
1@
1!
b1011101 %
b1010 9
b10 <
#935
0!
#940
b1011110 #
0)
b0 -
bx >
x@
1!
b1011110 %
b0 9
b10101011 =
0A
#945
0!
#950
b1011111 #
b1 -
1!
b1011111 %
b1 9
b1010101 =
1A
#955
0!
#960
b1100000 #
b10 -
1!
b1100000 %
b10 9
b101010 =
#965
0!
#970
b1100001 #
b11 -
1!
b1100001 %
b11 9
b10101 =
0A
#975
0!
#980
b1100010 #
b100 -
1!
b1100010 %
b100 9
b1010 =
1A
#985
0!
#990
b1100011 #
b101 -
1!
b1100011 %
b101 9
b101 =
0A
#995
0!
#1000
b1100100 #
b110 -
1!
b1100100 %
b110 9
b10 =
1A
#1005
0!
#1010
b1100101 #
b111 -
1!
b1100101 %
b111 9
b1 =
0A
#1015
0!
#1020
b1100110 #
b1000 -
1!
b1100110 %
b1000 9
b0 =
1A
#1025
0!
#1030
b1100111 #
1*
b1001 -
1!
b1100111 %
b1001 9
#1035
0!
#1040
b1101000 #
1)
0*
1+
b1010 -
b11 .
1!
b1101000 %
b1010 9
b11 <
#1045
0!
#1050
b1101001 #
1&
0,
1!
b1101001 %
b0 9
0?
#1055
0!
#1060
b1101010 #
1!
b1101010 %
#1065
0!
#1070
b1101011 #
1!
b1101011 %
#1075
0!
#1080
b1101100 #
1!
b1101100 %
#1085
0!
#1090
b1101101 #
1!
b1101101 %
#1095
0!
#1100
b1101110 #
1!
b1101110 %
#1105
0!
#1110
b1101111 #
1!
b1101111 %
#1115
0!
#1120
b1110000 #
1!
b1110000 %
#1125
0!
#1130
b1110001 #
1!
b1110001 %
#1135
0!
#1140
b1110010 #
1!
b1110010 %
#1145
0!
#1150
b1110011 #
1!
b1110011 %
#1155
0!
#1160
b1110100 #
1!
b1110100 %
#1165
0!
#1170
b1110101 #
1!
b1110101 %
#1175
0!
#1180
b1110110 #
1!
b1110110 %
#1185
0!
#1190
b1110111 #
1!
b1110111 %
#1195
0!
#1200
b1111000 #
1!
b1111000 %
#1205
0!
#1210
b1111001 #
1!
b1111001 %
#1215
0!
#1220
b1111010 #
1!
b1111010 %
#1225
0!
#1230
b1111011 #
1!
b1111011 %
#1235
0!
#1240
b1111100 #
1!
b1111100 %
#1245
0!
#1250
b1111101 #
1!
b1111101 %
#1255
0!
#1260
b1111110 #
1!
b1111110 %
#1265
0!
#1270
b1111111 #
1!
b1111111 %
#1275
0!
#1280
b10000000 #
1!
b10000000 %
#1285
0!
#1290
b10000001 #
1!
b10000001 %
#1295
0!
#1300
b10000010 #
1!
b10000010 %
#1305
0!
#1310
b10000011 #
1!
b10000011 %
#1315
0!
#1320
b10000100 #
1!
b10000100 %
#1325
0!
#1330
b10000101 #
1!
b10000101 %
#1335
0!
#1340
b10000110 #
1!
b10000110 %
#1345
0!
#1350
b10000111 #
1!
b10000111 %
#1355
0!
#1360
b10001000 #
1!
b10001000 %
#1365
0!
#1370
b10001001 #
1!
b10001001 %
#1375
0!
#1380
b10001010 #
1!
b10001010 %
#1385
0!
#1390
b10001011 #
1!
b10001011 %
#1395
0!
#1400
b10001100 #
1!
b10001100 %
#1405
0!
#1410
b10001101 #
1!
b10001101 %
#1415
0!
#1420
b10001110 #
1!
b10001110 %
#1425
0!
#1430
b10001111 #
1!
b10001111 %
#1435
0!
#1440
b10010000 #
1!
b10010000 %
#1445
0!
#1450
b10010001 #
1!
b10010001 %
#1455
0!
#1460
b10010010 #
1!
b10010010 %
#1465
0!
#1470
b10010011 #
1!
b10010011 %
#1475
0!
#1480
b10010100 #
1!
b10010100 %
#1485
0!
#1490
b10010101 #
1!
b10010101 %
#1495
0!
#1500
b10010110 #
1(
1/
1!
b10010110 %
#1505
0!
#1510
b10010111 #
0(
0/
1!
b10010111 %
b101000101001000001000011000 :
#1515
0!
#1520
b10011000 #
1!
b10011000 %
#1525
0!
#1530
b10011001 #
1!
b10011001 %
#1535
0!
#1540
b10011010 #
1!
b10011010 %
#1545
0!
#1550
b10011011 #
1!
b10011011 %
#1555
0!
#1560
b10011100 #
1!
b10011100 %
#1565
0!
#1570
b10011101 #
1!
b10011101 %
#1575
0!
#1580
b10011110 #
1!
b10011110 %
#1585
0!
#1590
b10011111 #
1!
b10011111 %
#1595
0!
#1600
b10100000 #
1!
b10100000 %
#1605
0!
#1610
b10100001 #
1!
b10100001 %
#1615
0!
#1620
b10100010 #
1!
b10100010 %
#1625
0!
#1630
b10100011 #
1!
b10100011 %
#1635
0!
#1640
b10100100 #
1!
b10100100 %
#1645
0!
#1650
b10100101 #
1!
b10100101 %
#1655
0!
#1660
b10100110 #
1!
b10100110 %
#1665
0!
#1670
b10100111 #
1!
b10100111 %
#1675
0!
#1680
b10101000 #
1!
b10101000 %
#1685
0!
#1690
b10101001 #
1!
b10101001 %
#1695
0!
#1700
b10101010 #
1!
b10101010 %
#1705
0!
#1710
b10101011 #
1!
b10101011 %
#1715
0!
#1720
b10101100 #
1!
b10101100 %
#1725
0!
#1730
b10101101 #
1!
b10101101 %
#1735
0!
#1740
b10101110 #
1!
b10101110 %
#1745
0!
#1750
b10101111 #
1!
b10101111 %
#1755
0!
#1760
b10110000 #
1!
b10110000 %
#1765
0!
#1770
b10110001 #
1!
b10110001 %
#1775
0!
#1780
b10110010 #
1!
b10110010 %
#1785
0!
#1790
b10110011 #
1!
b10110011 %
#1795
0!
#1800
b10110100 #
1!
b10110100 %
#1805
0!
#1810
b10110101 #
1!
b10110101 %
#1815
0!
#1820
b10110110 #
1!
b10110110 %
#1825
0!
#1830
b10110111 #
1!
b10110111 %
#1835
0!
#1840
b10111000 #
1!
b10111000 %
#1845
0!
#1850
b10111001 #
1!
b10111001 %
#1855
0!
#1860
b10111010 #
1!
b10111010 %
#1865
0!
#1870
b10111011 #
1!
b10111011 %
#1875
0!
#1880
b10111100 #
1!
b10111100 %
#1885
0!
#1890
b10111101 #
1!
b10111101 %
#1895
0!
#1900
b10111110 #
1!
b10111110 %
#1905
0!
#1910
b10111111 #
1!
b10111111 %
#1915
0!
#1920
b11000000 #
1!
b11000000 %
#1925
0!
#1930
b11000001 #
1!
b11000001 %
#1935
0!
#1940
b11000010 #
1!
b11000010 %
#1945
0!
#1950
b11000011 #
1!
b11000011 %
#1955
0!
#1960
b11000100 #
1!
b11000100 %
#1965
0!
#1970
b11000101 #
1!
b11000101 %
#1975
0!
#1980
b11000110 #
1!
b11000110 %
#1985
0!
#1990
b11000111 #
1!
b11000111 %
#1995
0!
#2000
b11001000 #
b11000 >
1@
1!
b11001000 %
#2005
0!
#2010
b11001001 #
0&
0)
1,
b0 -
bx >
x@
1!
b11001001 %
0;
b11000 =
1?
0A
#2015
0!
#2020
b11001010 #
b1 -
1!
b11001010 %
b1 9
b1100 =
#2025
0!
#2030
b11001011 #
b10 -
1!
b11001011 %
b10 9
b110 =
#2035
0!
#2040
b11001100 #
b11 -
1!
b11001100 %
b11 9
b11 =
#2045
0!
#2050
b11001101 #
b100 -
1!
b11001101 %
b100 9
b1 =
1A
#2055
0!
#2060
b11001110 #
b101 -
1!
b11001110 %
b101 9
b0 =
#2065
0!
#2070
b11001111 #
b110 -
1!
b11001111 %
b110 9
0A
#2075
0!
#2080
b11010000 #
b111 -
1!
b11010000 %
b111 9
#2085
0!
#2090
b11010001 #
b1000 -
1!
b11010001 %
b1000 9
#2095
0!
#2100
b11010010 #
1*
b1001 -
1!
b11010010 %
b1001 9
#2105
0!
#2110
b11010011 #
1)
0*
0+
b1010 -
b0 .
b10000010 >
1@
1!
b11010011 %
b1010 9
b0 <
1A
#2115
0!
#2120
b11010100 #
0)
b0 -
bx >
x@
1!
b11010100 %
b0 9
b10000010 =
0A
#2125
0!
#2130
b11010101 #
b1 -
1!
b11010101 %
b1 9
b1000001 =
#2135
0!
#2140
b11010110 #
b10 -
1!
b11010110 %
b10 9
b100000 =
1A
#2145
0!
#2150
b11010111 #
b11 -
1!
b11010111 %
b11 9
b10000 =
0A
#2155
0!
#2160
b11011000 #
b100 -
1!
b11011000 %
b100 9
b1000 =
#2165
0!
#2170
b11011001 #
b101 -
1!
b11011001 %
b101 9
b100 =
#2175
0!
#2180
b11011010 #
b110 -
1!
b11011010 %
b110 9
b10 =
#2185
0!
#2190
b11011011 #
b111 -
1!
b11011011 %
b111 9
b1 =
#2195
0!
#2200
b11011100 #
b1000 -
1!
b11011100 %
b1000 9
b0 =
1A
#2205
0!
#2210
b11011101 #
1*
b1001 -
1!
b11011101 %
b1001 9
0A
#2215
0!
#2220
b11011110 #
1)
0*
b1010 -
b1 .
b10100 >
1@
1!
b11011110 %
b1010 9
b1 <
1A
#2225
0!
#2230
b11011111 #
0)
b0 -
bx >
x@
1!
b11011111 %
b0 9
b10100 =
0A
#2235
0!
#2240
b11100000 #
b1 -
1!
b11100000 %
b1 9
b1010 =
#2245
0!
#2250
b11100001 #
b10 -
1!
b11100001 %
b10 9
b101 =
#2255
0!
#2260
b11100010 #
b11 -
1!
b11100010 %
b11 9
b10 =
1A
#2265
0!
#2270
b11100011 #
b100 -
1!
b11100011 %
b100 9
b1 =
0A
#2275
0!
#2280
b11100100 #
b101 -
1!
b11100100 %
b101 9
b0 =
1A
#2285
0!
#2290
b11100101 #
b110 -
1!
b11100101 %
b110 9
0A
#2295
0!
#2300
b11100110 #
b111 -
1!
b11100110 %
b111 9
#2305
0!
#2310
b11100111 #
b1000 -
1!
b11100111 %
b1000 9
#2315
0!
#2320
b11101000 #
1*
b1001 -
1!
b11101000 %
b1001 9
#2325
0!
#2330
b11101001 #
1)
0*
b1010 -
b10 .
b101 >
1@
1!
b11101001 %
b1010 9
b10 <
1A
#2335
0!
#2340
b11101010 #
0)
b0 -
bx >
x@
1!
b11101010 %
b0 9
b101 =
0A
#2345
0!
#2350
b11101011 #
b1 -
1!
b11101011 %
b1 9
b10 =
1A
#2355
0!
#2360
b11101100 #
b10 -
1!
b11101100 %
b10 9
b1 =
0A
#2365
0!
#2370
b11101101 #
b11 -
1!
b11101101 %
b11 9
b0 =
1A
#2375
0!
#2380
b11101110 #
b100 -
1!
b11101110 %
b100 9
0A
#2385
0!
#2390
b11101111 #
b101 -
1!
b11101111 %
b101 9
#2395
0!
#2400
b11110000 #
b110 -
1!
b11110000 %
b110 9
#2405
0!
#2410
b11110001 #
b111 -
1!
b11110001 %
b111 9
#2415
0!
#2420
b11110010 #
b1000 -
1!
b11110010 %
b1000 9
#2425
0!
#2430
b11110011 #
1*
b1001 -
1!
b11110011 %
b1001 9
#2435
0!
#2440
b11110100 #
1)
0*
1+
b1010 -
b11 .
1!
b11110100 %
b1010 9
b11 <
1A
#2445
0!
#2450
b11110101 #
1&
0,
1!
b11110101 %
b0 9
0?
#2455
0!
#2460
b11110110 #
1!
b11110110 %
#2465
0!
#2470
b11110111 #
1!
b11110111 %
#2475
0!
#2480
b11111000 #
1!
b11111000 %
#2485
0!
#2490
b11111001 #
1!
b11111001 %
#2495
0!
#2500
b11111010 #
1!
b11111010 %
